/* XPM */
/* -copyright-
#-# 
#-# Copyright (C) 1999-2001  Robin Hogan, 2021-2024 Willem Vermin
#-# 
#-# This program is free software; you can redistribute it and/or modify
#-# it under the terms of the GNU General Public License as published by
#-# the Free Software Foundation; either version 2 of the License, or
#-# (at your option) any later version.
#-# 
#-# This program is distributed in the hope that it will be useful,
#-# but WITHOUT ANY WARRANTY; without even the implied warranty of
#-# MERCHANTABILITY or FITNESS FOR A PARTICULAR PURPOSE.  See the
#-# GNU General Public License for more details.
#-# 
#-# You should have received a copy of the GNU General Public License
#-# along with this program; if not, write to the Free Software
#-# Foundation, Inc., 59 Temple Place, Suite 330, Boston, MA  02111-1307  USA
#-# 
*/
static char * bomber_xpm[] = {
"768 48 65 1",
" 	c None",
".	c #020202",
"+	c #FEB602",
"@	c #FE4A0A",
"#	c #908D88",
"$	c #696661",
"%	c #784C06",
"&	c #EEEEEC",
"*	c #5B4108",
"=	c #32312F",
"-	c #BCBCBC",
";	c #FA8615",
">	c #DA6E0B",
",	c #252320",
"'	c #FCC856",
")	c #E8E7E7",
"!	c #C75A07",
"~	c #C07514",
"{	c #DC9227",
"]	c #FC9B0E",
"^	c #1C1A18",
"/	c #DADAD9",
"(	c #9B550D",
"_	c #171615",
":	c #9E9A94",
"<	c #F7AB5F",
"[	c #AB721F",
"}	c #8C5007",
"|	c #210E03",
"1	c #8E4006",
"2	c #D0CECB",
"3	c #FCA33D",
"4	c #F8DFAF",
"5	c #9C7038",
"6	c #121212",
"7	c #763403",
"8	c #797876",
"9	c #FEAC0D",
"0	c #4E4A44",
"a	c #C88E3C",
"b	c #734109",
"c	c #0F0E0D",
"d	c #7C572A",
"e	c #C4A258",
"f	c #573009",
"g	c #F5F5F2",
"h	c #FD540A",
"i	c #FAD082",
"j	c #DEBF8E",
"k	c #42413E",
"l	c #C6C6C6",
"m	c #B88E4E",
"n	c #DAA769",
"o	c #0A0A0A",
"p	c #715529",
"q	c #FB972C",
"r	c #492303",
"s	c #575655",
"t	c #A5A099",
"u	c #4A3518",
"v	c #FEFEF6",
"w	c #FEBA39",
"x	c #60421C",
"y	c #FB710C",
"z	c #ADACAA",
"                                                                                                                                                                                                                                                                                                                                                                                                                                                                                                                                                                                                                                                                                                                                                              //                    //          ",
"                                                                                                                                                                                                                                                                                                                                                                                                                                                                                                                                                                                                                                                                                                                                                              /                      /          ",
"                                                                                                                                                                                                                                                                                                                                                                                                                                                                                                                                                                                                                                                                                                                       z                                                                        ",
"                                                                                                                                                                                                                                                                                                                                                                                                                                                                                                                                                                                                                                                                                                                       tt                                                                       ",
"                                                                                                                                                                                                                                                                                                                                                                                                                                                                                                                                                                                   93q<w                                                                                                                       22      :         //                                                             ",
"                                                                                                                                                                                                                                                                                                                                                                                                                                                                                                                                                                 -t#$sssss$#z   '3;;;q3w'                                            9q3w                                                                      -z               v/l                                                             ",
"                                                                                                                                                                                                                                                                                                                                                                                                                                                                                                                                                                $#tzztt::###m{ 3<q;y;;qw''                                          qqqqw'                                                                                       )                                                              ",
"                                                                                                                                                                                                                                                                                                                                                                                                                                                                                                                 #8#88###8                                    :88#-)/))/l-z:[;]qqq;;y;;9'''                       tz:#8$8$$$8:t  w<q;;;q3''                                                                                                          /                                     /    ",
"                   s=_...o6k8                                      s=_...o6k8                                      s=_...o6k8                                                                                                                                                                                    =^oo.o,=,,                                        ]3<wi444                                                                                                                                   #$s888###8$k_c^0                             #$$z2/)&gg&)/2llj3y;;33<;;;;3www                     8$$#-ll22l-z:[aq]qq;;;y;3'''                           -                                                                                                                        ",
"                  ,=,6...o6,ks                                    ,=,6...o6,ks                                    ,=,6...o6,ks                                                                                                                                                                                  ck00=,=s$$=,                                      ];qq<ii444                                                                                                                                 s:tz------t#$s=,0d                           3mt-/&vg&&)//l-l-zm[>yq3<33q]39ww                    #tzzl/)&&/2ll-e;;;qq3;;;;qw''                           zz                                                                                                                       ",
"                 ^^^=^o.6^=,,0s                                  ^^^=^o.6^=,,0s                                  ^^^=^o.6^=,,0s                                   00,6....o=$                                     00^c...c^ks                                                                                  .c08#s0$:zzsk=                                    9;yy>{j'i444                                                                                     8#:#:tt:#8                               :88z/vvvvv)/l-z:$k%5[55m<9w44                 99nigvvv&//2l--zz:8$x}!>;qq<9]]9''w                :#8:2&gvv&&)/lll-n{>;q3<3q;;q99w                           z   lll                          //                              z)                                                      ",
"                s^k#:$,.k#z#s,^                                 s^k#:$,.k#z#s,^                                 s^08:$,.k#z#s,^                                  __6co...o6_,s                                   oc6co...o.c,s                                     s=^....6k8                                 _o,:#5}[nnj/##8                                    9]>!7rda''i/                                   #$k,,,,___,^_,=s#                               8$8:-l2/2z8$k=s8#                         $s#/)gvvvvg/l--zz#$!>a;{yy;qw'4               ;q3<'ivvgg//2-z::8$0=_|^b5y;;]9999ww               9{n/&gvg&)//2l--zz#5(!yq33<99q]w'w                    l         zz                            //                                                                                     ",
"               s0k8z#s==0$t-t=0                                s0k8z8su=0$t-:=k                                s0=8-#s==0$t-t=0                                 0^=s$kc.,s8skk=                                 =^=ss=..=$$0=0s                                   ,=^_...o6,ks                                6^*nn~anii4innnq                                  5{y>7^|rd{+a#                                  =k=^_666ccc_6o6^,k=                             0$:-2)&&g)2-:8s0kkk                       0k8lgvvvvvvg)2-zzzt#~>;;;;yy;3wi              ;;;]<w'44)l--t##8$sk,6...^f1!>;;]]3]3              ;9<w4&vv&)/2l-zzt#8skuf1~>qqq]]]9'ww                    2                                                                                                                             ",
"               ==0:lsx%5$s#l/s$:                               ==0:20xx5$$#l20s:                               ==st2sx%5$$#l/s$:                               $s=$zz$,^0:2-#,,                                kk=8z:06^szl:skk                                  ^^,=^o.6,=,,ss                               _ud3qq<jj4jjnn<{~                                sp(!(|...ud~dr                              $0_o....o_^,,^^_c......6kk                         ,k8/gvvvvvv&/lz80^.6=$$                   8k=-)vvvvvvvg)/lzzzzt#~;;qq;;y3''             ;;y;;q<w'ij##8$$s0k,_oo....o|*(!>>{;q]             ;;q3<w4gv&//l-t:88sk,c..^*!!y;]]999<9                     /             -l)                                                                                                            ",
"               ,=u5n!>ajjjj/zk0#                               ,=u5n!~ajjjj/-=s#                               ,=u5q!>ajj-ji-=0#                               0kk#lskupps#--ks:                               ,=$tls=ux0$-2zkk$                                $,0#t$,.k#-:s=,                               ^f({qqq3qm[5([(dpk                              #k_rrr....c_|^c,s#                        :s__6.....c=$#:#8$0=^o.....oo^$                    #0c,8/&vvvvvvg)/l-t$=6.o_=$8                ndxpl&vvvvvvv&/2--tzz-m~y;q3;;;qw'            ]];;y;]9ww9a0=====,^^c.......o|^rb}}((             ;;;;3<w'i4ltt##8$s0=^6o..o|rb(>y;]]]]]               t-                 2ll                                                             //                                             /",
"               sx}>{>q<4444in*ks                               sx}[;;qw4444'nxks                               px}>y;q'i444ie00s                               ==k#n(([ettzj-k0$                               k,s:jd(5e#:22:,^=k                              00=8-#suu08z-t==                              s,rf}}}((%ufrrrr,^,o                            =k,...o.........c,k^                      s0,o......=s:l//l-z:8s,^......c=k                  sk,6szgvvvvvvvg)2-zz#s,c..,00=              <9a[migvvvvvgg&/l-zzzz-tm>;q]q;;9w'           q9];;;;q]9w9{b,o66cooo...........|,,=ff            ];;y;;39ww<msss0kk=,^c......o|f7((~~~q                :--                 2                                                              /                                               ",
"              85}>yyq<w'i4''{dk=                              8d(yyy3wiii4i'edk=                              8d(>yyq<iji4''{du=                               ==7!;>;<4444'mu=k                              $k,}~q>q<&4i4j5^oo==                             ^,k:-sup5$$#22k=s$$                          ss_oo|||6o|.........._,                        $k_...................,0                   kkc......c,$-&vvvg&/2z:sk_.......^k                s0c.,:/vvvvvvvvg)2-zt#8=^orrx=_^k0          ]]]9ww'4vvvvv&))/--zzzz-z~!;;q]]]w''          qq<3q;;;]]99w3(f.o....................66           ]]];y;;]9ww]d=__,,_66oo........o|ru*7%                  --l                                   /                                       //                                                  ",
"             8=u(!yyyy;;;q33ed=o6                            8=f%>hhyy;;q333{d=o6                            8=u}>yyy;y;q333ed=o6                            8^r1~y;3<'i44iind,c6s:                        8ko6r1>yyqwii/44jaro.oo6s                       8s=o.6u5q>>{ii2ije=_c_ook                      s^66...................oo.,s                  #066c....................oo.=$              #,co.......=82&gvvv&)/2--t$=6.......c6             #k_c.,s/gvvvvvvvvg)2-zzt#k=f(>~ad,6=s        ]q]]q3w9'ivvg&)/2l-zzzz---#(y;;]99'''          ;;3<9]]]]]9339>f.......................o          q39q;;;q]99ww~*coo.o...............co^^                                         z-              )                                       gg                                                 ",
"            $0c|r71111111}}d%u_.o6                          $06|rb7111111(}dpu_.o6                          8kc|r77111111(}d%u^.o6                          k=6=}!y>;q33n<w<e%,.o,00                      ,k^..r(>yy;q<3<<w<auo...o,=                     _==6.^f(>;;q<444i'e*_....^_                    =,c........................^,,                =k,o..........o6_^_6o........^=,            $k_........^8lgvvvvv&&/2---#$,o.......o^           s0^cook8)vvvvvvvvv&/l-zzztsp(>;q<e5p0        3];;;;q]]9'4&&)/2--zzztz-l-8x(y;q]+''w           ;q]3]]]99]993>7........................          ;333];q]]9]9w;}|.....................oc                                         z-                                                                                                         ",
"           #0....o|||||||||o.....6^                        #0.....|||||||||......6^                        #0o...o|||||||||o.....6^                        ,_..,f1!!!!!!!!>[$u^...c==                    ^^....r%!!!>>h!>>{a5=c.....^,                  $k.....r(>yyq<wjjii'np,......o==                ^c...........................o^^              ,,o..........6,k0ss0k=^c.......o^^          #k.o.......60zvvvvvvvv&)2---z#0^.......o,k         0,.|,rrpt&vvvvvvvv&)2-zzt-z#(>y;9''jee        3q;y;;;]]99wi)/2l-zzzzz-llt$=*!;;9+'<n            ;;;q]]9]9]]]!fo.......................          ;q3<9]]]]93]9{!|......................o               ))                                                                                                                                   ",
"           =^.....................c,                       =_.....................c,                       =6.....................c,                      ,c...o||||r||r||r^_c.....c^,                 #,o......|rrrrrrrrrr,^o.......6,                ,^c.....,%!>>yy;;y;q{#*^.......c6,#             oo.............................._,            ooo..........,st2///lt#$0,c.........         =,6^c......^#/vvvvvvvvg)/l---z8ko.....o===        k_o^%[a~{ngvvvvggg&)22-zzzzlz;y;]9+w'ii4      ]qq3q;;q]]9+w'//l--zz-----z8k.|1y;39qq              [(>>yqq]];!f|........................           ;]]]]99]9999;(|o......................                l-                                                                                                                                  ",
"          k6...........ooooo......o_k                     k6...........ooooo......o_k                     k6...........ooooo......o_k                    ^c.........................o^=               $06.........oooo.|oc............c^              cc.......|rr77717777bb*,c........._k0           ...............c^^,^^6...........o_^          co..........o=8-/gvvg)l-t8s=c.........        0=_,c.....o=-)vvvvvvvvv&/l--l-ts^o....6=k        ===xdm<3q;34vvgg&&)//ll-zzz-lnq;;]99+w'ii      ;q;qq3]]]9+++wj2l---zzzzz:80,.of(>;{(}              x*bb7%(5[}7|.........................            ;~>;;]]]]];!f|.......................                                                                                                                                                    ",
"         0kc.........c^,=,,6o.......=$                   0kc.........c_,==,6o.......=$                   0ko.........o^==,,6o.......=$                  ^c.............ooo...........c=k             8k................................c^          $s_...................o................^k       $s6............o_,kssss0k^o...........^,        ^c..........o,8lvvvvvg)/l--#$,o........c       $   o.....^s/vvvvvvvvvvg)2---ll8=|cooo6          k05mji'9q;;i)g)))//2l--zzz-lln{;999]]]w''      ;;;qq39939+++3nll-zzzt:#8s=_o..^u(!(||              =,...|,f*ro..........................             %(!(>~;~~!7|........................                                                                                                                                                    ",
"         66.........ck8##8s=,o......6,                   66.........ck8##8s=,o......6,                   66.........o0$##8s=^o......6,                 k6............o_,=,6oo.........c=$           8=c...............o|c|6oo...........o6        k,6.o6..................................oc,     8kc.............=$:z---z:8s,c...........=s      s,...........,$2gvvvvv&)2l---:s,........^=          ......k8)vvvvvvvvvvv)/l--l2tdb*f|..          j-j'iww99;;34g)/2lll--zztz-ljq]]99+9];]9w       ;yyy;]]999+93q--t:#88$sk,6o....c^||o.              __....oooo...........................             u,||^u%d%r|.........................            2l2)                          2-zl        )                                           l-                                               -",
"         ,........c=$tll-z#$k^c......_s                  ,........c=$tll-z#$k^o......_s                  ,........c=$tll-z#$k^o......_s               k^...........c=s8#88s=,c.........^=          s0c............o_ks$$$ssk,_...........o=       ==kc=ko..............ooo..............6=k=,0    k^............ok#-/)/2l--t:s=c.........._,      =^..........osz&vvvvvvg)2l----8ko.......,=          ..o,xdmz&vvvvvvvvvvg&/--zl/na~~mdu,8         iii'w39]9];;<)/2l--z-z-zz--2j3]9+9+w<]q]         y;yy;;]]]]];[$8$ss0k=,^o.......o....              cc...................................             ,_...|,r,o..........................             ll)                           -zl        l/                                          l-                                                ",
"        s=........,$/gv)/lz#$k^o....._s8                s=........,$/gv)/lz#$k^o....._s8                s=........,$/gv&/lz#$k^o....._s8             $=..........o^k8-//2z:80,6..........          ,cocc.........6=s#-/l-z#8sk^........oco=$      _k8 ssc..........o_,===,_c...........o^$$s,s:   .oo..........o=#/vvg)/l---z#s,o.......o.oc      .  .........6#&vvvvvvvg&/2----zs6.....o  =          o|r$e'''4gvvvvvvvvgg&l-z--j<;q+'<md#:         ''<]]]99]];322l--zz------22j]]99+w''<]            1!!>>;>;>(7=,,,,^_66..............              oo...................................             6o..................................                                                      zl)                                           //                                              ",
"        =_.......osl&vv)2l-z#s=c.....ck0                =_.......osl&vv/2l-z#s=c.....ck0                =^.......o$-gvg)2l-z#s=c.....ck0             6o.........o=8l/gg&/l-z#s=o........ok        #ko,0s^o......^$z/)&&)2l-z#8k^o.....c=0=,6          ^_..........c=$:llz#s0,_...........       $s^,=o.........=8/gvvg)/2----t8s^o.....oc ,=$        ........o=:gvvvvvvvvg&/2----8,o.....             u*[niiwww4vvvvvvvvg)/l-tz-<qyq9wijnne          3q]]9+++9;3j/l-zz-----ll/i<q]9+w'ijm             |rrf%(((%=coc6o6o.................              .....................................             o...................................                                                                                                                                                    ",
"        6o......o,#)vvg)/2--z8k^o....o,=                6o......o,#)vvv)/l--t8k^o....o,=                6o.......,#&vvg)/l--t8k^o....o,=            0o^=^......6k#l&vvv&)2l-z#s=o.......c,=       8skkss_......k8-/vvvv)/---z:80,c....o=sk=,s         ^.........o=$#-/g&/-t8$k,.........o0      $$=0sc........c$l&vvvg&&/2----t8=6.....oo  k$        ........6s-vvvvvvvvvvg)2----8ko....os            mm<j'ww9+ivvvvvggg&/l-zzz-n{;]]9''iww           ]]3w++++]q3----------l--tm;;9+''n5s             6o|^,rrr^c........................              o....................................             ....................................                                                                                                                                                    ",
"        ........6szvvvvg)/--z#s=6.....c^                ........6szvvvvg)/l-z#s=6.....c^                ........6szvvvvg)/--z#s=6.....c^            s6k$=6.....=#)vvvvv&)/llll#s^o....o6__^       $8#   .....o,8/vvvvvv&/l----t#0^....oo   0$        k^........o=8lgvvv&//l-:8k^o.......c0s     $$ 8$6.......o,#vvvvvvvg&/2---z:s,.......            ........_8lvvvvvvvvvvg)/---l#0c....6s8          n3+ww93]]9'4vggg&))//-zzzz-nq;9]]9'i''            3'''++9];;:tz------zz:#pd>;]'we5*^             =,o...............................              ,_.................................c6             ....................................                                         lt                                                                                                         ",
"       $_.......^82vvvvg&)2lz:80^o.....k8              $_.......^82vvvvg&)2--:80^o.....k8              $6.......^82vvvvg&)/--:80^o.....k8               ^o....6$lgvvvvvg&)2l-lz#k_....c6 ==            ,o....,#2gvvvvvgg&)2----t8kc.....            #,o........k#/gvvvv&)/---t#0^........^,        =,o.......cszvvvvvvvvg&/l---z8kc.....^$           ........,#/vvvvvvvvvvg)/---/t$6....6k0          ;q]9]qq]]9'i&g)/)//l-zzzzznqq]9]]]3''''            ''ww++];!uks$####8$sk=^|%>qemp,,k             s0c.............................c6             8s,o...............................o=k             6o..................................               -z:                                                                                                                                  ",
"      #86......o=z)vvvvvg&/l-z8s,c.....k8             #86......o=z)vvvvvg)/lzz8s,c.....k8             #8_......o=z)vvvvvg)/lzz8s,c.....k8              $^....o=:&vvvvvvvg)/l---ts,....o= k            6c....,$2&vvvvvvvgg&/l----:$,....,           #$_.......ok#2gvvvvv&)/l---t#k_.......6_        ^^........_8-vvvvvvvvgg/2----#s_....._$8          c.......,:/vvvvvvvvvvg)/---/ts6....o=k          ;;;;;;;]<w'i4)/2lll--zzzzz<{q]9]]]]3w'i            nj<ww+];(^6,=kks0k=,_coor7}%u^.=$              0o............................o=k             0=^o...............................o=             $,6................................_,               lt                                                                                                                                   ",
"      #$_......_02gvvvvvvg/2--#$=_o....k8             #$_......_02gvvvvvvg)2--#$=_o....k8             #$_......_02gvvvvvv&)2--#$=_o....k8             :8^...._s-vvvvvvvvgg)2l-l-8k.....k8             ^.....0t&vvvvvvvvvv&)/l----8k6...=$          s06......o,#2vvvvvvvg)/2----t$,.......66        ,^o.......^#/vvvvvvvvvg&/l-l-ts^o....6s$          ^6......^:/vvvvvvvvvvg)2---2zs^|66o6==          yyyyy;]9w''ii/2------ztzzeq;]9999]]q]w4            #majw3]y1|....oo66c......oc....k#               ,c...........................6s              ,^c................................c             $sk_................................,0              g                        22                                                                                                           ",
"      8$6......,$/vvvvvvvv)/--:8k^..6^6k8             8$_......,$/vvvvvvvg&/l-:8k^..6^6k8             8$6......,$/vvvvvvvg&/--t8k^..6^6k8             #8_....^#2vvvvvvvvvg&/2---:0c....,k            z0o...o$/gvvvvvvvvvvg)/2---l:$_...,0          =,o......^s2gvvvvvvvvg&/l----:0c......oo        s0c.......,z)vvvvvvvvvv&/l--lz$^....._$8          0,...|||,$lvvvvvvvvvg&/l---/t5b}ddx===          ;y@@yq]++''''22-zzzztzzzn{;]9+9w''9]9w              uu5a;>(fo....................6,                8k..........................o6               $=................................,0             ,,^o................................o                   -                    -z                g)/                                    -                                                   ",
"       $0=c....=8)vvvvvvvg&/l-z#0,o._k0s               $0=c....=8)vvvvvvvv&/l-z#0,o._k0s               $0=c....=8)vvvvvvvv&/l-t#0,o._k0s              #8_....^:/vvvvvvvvvv&)2-l-ts_...._=            zs...o^#&vvvvvvvvvvvvg&/---lt8^o..^k          =,o......=#)vvvvvvvvvvg)2----z$,o.....oc         0o.......,-&vvvvvvvvvg&/l--lz$,o...._$8           ,6rxp555mjvvvvvvgg&))2---l2n~~~{amm#5           yhhyq99+w'i'i2--zzzzzzz-q;]99+w'''ww               k=ub}bf^....................ck0                 0,..........................                 k^..............................^=              0k_...............................o,,                  lzz                                      )                                      /                                                  ",
"        :06....k#)vvvvvvvv&/2-z:s,..,s8                 :06....k#)vvvvvvvg&/2-z:s,..,s8                 :06....k#)vvvvvvvv&/2--:s,..,s8                8_....,z)vvvvvvvvvvg)/-l-t$,....6,            -s...c=tvvvvvvvvvvvvvvg)l--lz#,o..^=          k=o......0z&vvvvvvvvvvv&/l----#ko.....6_          ........,z&vvvvvvvvvg&/l--lz$^.....^8#           xf5an'jw<'4ggggg&)//2l--l22jq;;q<'''i            yyy;]999w''22l---zzz--nq;q]9+w''''                 0_oo|.....................o,8                   0_........................                   =6...........................o_k                s^..............................._0                   lz                                                                               g                                                /",
"         ,6....k#)vvvvvvvv&)/2-z$=o.=8                   ,c....k#)vvvvvvvv&)/l-z$=o.=8                   ,6....=#)vvvvvvvv&)/l-t$=o.=8                  ....o=-&vvvvvvvvvvv&)2llz$,6...^=             ,c..cktvvvvvvvvvvvvvv&)l---z#=6..6=          8s6......slgvvvvvvvvvvvg)/l--l#s_.....c6          6.......^t/vvvvvvvvg&/2l---z$,o...._8:          ]3{{q<q3q<<j)gg/)//2l----l22<yhhyy;3'''            (>;;;]9'''4)/2l---zl2-q;;9w'''ee                   =_.......................=$                     k^......................                     s=..........................^k                  =_.............................^k                                    &2-                                                                  /                                             ",
"         66....k:&vvvvvvvv&//l-z$=o.k$                   _6....k:&vvvvvvvv&//2-z$=o.k$                   66....kt&vvvvvvvv&//l-z8=o.k$                  o...o=z&vvvvvvvvvvg&)2l--8kc...,k             ^^...,#gvvvvvvvvvvvvg&/l--lz8=c..^k          #$^......$2gvvvvvvvvvvvg)/l--2t$^....o^,          =^......^8lvvvvvvgg&)/l--llts_.....c$           ]33]q;yyqwna:l&//ll-----ll-tayh@@hy;q3w            5(!y;;]3wee-l22l-l--z#~y;9'w<em                     =,o...................6.k                       k=6................._c                       =c=,^o.....................=s                   =,o..........................^=                                      2l                                                                                                                ",
"         ^^....0z&vvvvvvvv&)22-z8k..=$                   ^^....0z&vvvvvvvg&)2llz8k..=$                   ^^....0z&vvvvvvvv&//2-z8=..=$                  ^c...,z)vvvvvvvvvvg&)2l--#kc...,0             ==o..68)vvvvvvvvvvvgg)/---lt8,o..=s           8^.....o$/gvvvvvvvvvvv&/2---2z8^....okk          s,......cktvvvvg)))/2l---ll:s6.....c            ]3q;yhhh;we5s#2/l--------t#d(>hhhhyyy;]            #5(!yyy;{5$8z-lz-zz#8kb!{3+nm5                       0^c................c^,                          $,^_6...........o.o,                          8s=^_6...................=8                    s6o6o......................6k0                          z-           2                                                       /)                                                       ",
"         k=o...s-&vvvvvvvv&/2--z8=o.k8                   k=o...s-&vvvvvvvv&/2l-z8=o.k8                   k=o...szgvvvvvvvv&/2--z8=c.k8                  k^...,:/vvvvvvvvvvg)/-l--8k6...k$             $s6...sz&vvvvvvgggg&//l---l:$^...0#            6......s2gvvvvvvvvvvg&/2---/z8=....6$8           o.......,:gvvg)/22l-----l-$=o....^k             <3;hhyy;we5,=8z2/2l-zt:8s=x!yyhy;;;                88d(>yy!r|_=s8888s0=6|f!!d%p                         80,o............._00                             $8s,c.......o_==                                ss,6................._                       ssk^c...................._s8                          /)     l                                                             z-/                                                      ",
"         $sc...k:)vvvvvvg&)/ll-z$=o.k#                   $sc...k:)vvvvvvg&)/22-z$=o.k#                   $sc...k:)vvvvvvgg)/2--z8=o.k#                   ^..._#2vvvvvvvvgg&/2--l-8=c...,               so...=8/vvvvg)&)))/2l-----:s_...=             =^.....s-&vvvvvvvvgg&)2---l/z8,....o$            ^_......6s-&gg/2l------lz#s,.....^               <q;hyy;+jm,_=s8:t:#8$sk,_*!yyy;3<                  #5d111f|..6^,====^c..|ff*u                           skk=^c........^^_s                               #$=6.......o^k                                  $=66kk,_...........c6                        $k,^=,c.................cs                                 --                                                              -)                                                      ",
"          $_...=8)vvvvgg&)/2ll-z$=..k:                    $_...=8)vvvvgg&)/lll-z$=..k:                    $_...=8)vvvvgg&)/2ll-t$,o.k:                   cc..6$-gvvvg&gg&)/2l---t$,o..66                oo..6k-)vg))///lll-----lz8kc..oo             s,.....k:&vvvvvgggg&)/l---22ts_....o              ,o..oocc=$l)&/l-------z#$=,|6|6^^                <qyyy;9wnu..o,0ss0k,^o.cb!y;;3w                    z$=kro......oooo....o6^,                              #$k^6c....ock                                                                                      #80=_o........c^                             80^oo_co............o                                  zz                                                                                                                  /   ",
"           o..._02gv&&&//2ll-l-zs,..^                      o..._02gv&&&///ll-l-zs,..^                      o...^02gv&&&//2ll-llt$,..^                    s0c..^8/gg)/)///22l-llz80_..c0s                k^...^$z&&)/2lll-----ll-#s^..o,,              _.....,$/vvvg&))///22l--l2l#=o...^,               6o|,f***0$#-l222ll-z:$$%%ddd%b$$                 3q;y;<wnfo..o66_6co...or[;q9'                        8$,o...........oc=$$                                   0kc.o,,                                                                                            ==o......_=                                  $8s=^..........c^                                  ll                              /                       g                                                               ",
"           0,..o=:/v&)//2l---l-#0_o,,                      0,..o=:/v&)//ll---l-#0_o,,                      0,..o=:/v&)//2l---l-#k_o,,                     s^6.ok8l/)/2222l---zt80,o.^=s                  ^o..o=s:-l2-l------zzt#0=o...,               k=o...c=:/&&))//222l----l-:s6....6                $}}([~~[[558$##:###$$s([~~{a~~me                  33;;3n5,..............^%~qw                          $k00=^6o.oc_==__=8                                     sc.o,                                                                                              ko......^                                    #sk,,c......._^                                                                                            )                                                              ",
"           #0|cc^sz))/2l-l---2z#=_^0s                      #0|cc^sz))/2ll--l-2z#=_^0s                      #0|cc^sz))/2l--l-l2z#=^^0s                      =,6c_=#z--l----zzz#$s,_ook$                    66ooc^k8:zztzzzztt:#80,coo..                 $,o..._s:2/22llllll-----t$=o...c_                n3q];;]99]~x==0s0kk=u%~];;;]999w                   '<;3mx,co.........oc6ox5                              z#8k,6oc_=s8                                                                                                                                                                                             k,......o=                                                                           --                 2                  /                                          ",
"            ddbbbx8z222222l222z5p*xme                       dd%bbp8z222222l222z8p*xmz                       ddbbbx8z222222l222z#%upme                       ddxbxxs$8######88ss0uuupd                      sku7bx000s$$888$ss$px*u,,^                   8=..o|%(5m#:z-l-ll-z:##50u=|.6s$                w3;[[(!;]+]~}r666oo,%~q;>!5{3<ww                         $0=^o....oc_=s$                                                                                                                                                                                                                                                                                                                               2l                                                                               ",
"            >~>~a~matt#tzzz-j<na~[~nw                       >~>~~[mat:#ttzzzj<n{~[~nw                       >>~~~[[ett#tzzz-jj{a~[~nw                       ~>~[~[55$$sssss$$d([[[[aa                      5!(~~~[5dk====kkp([~[[[[d(                    $kr71~>~~~m##8#8888#5~~[[[}b0$                  ];[(([[[~~[},....o*!;;;>((a33<                           $k^o.....c^ks                                                                                                                                                                                                                                                                                                                                                                                                                 ",
"           y;;]]9+9{~8s88#:a{qq]+9+99'                     y;;q]99]{a5s88#:a{q;99999+'                     y;;]]99]{~8s88##a{;q]99999'                     q;;;9+9]{50,66,xd~>;]99999                      y;;]]99]{d=.o._k(>;]]999]3                    mm(>;q]]qq{(p0kkk0d[>;]99]]am                        #8dp%}*,....|b>>                                                                                                                                                                                                                                                                                                                                                                                          zz                                                           /          ",
"          ;y;<33333]9{    n{hyq<nnnq]]                    qy;33333]]3e    n;hyq<njnq]]                    qy;33333]]9e    n{hyq<njnq]]                    qyq33333]]3a    e~h;3<<<<]]]                    qyq33333]]9e    may33<<<<q]w                   <ny;39333]q{a    m>hyq<<<nq]9                                                                                                                                                                                                                                                                                                                                                                                                                                  /2                                    /                                 "};
